<?xml version="1.0" encoding="utf-8"?>
<!-- Generated by IcoMoon.io -->
<!DOCTYPE svg PUBLIC "-//W3C//DTD SVG 1.1//EN" "http://www.w3.org/Graphics/SVG/1.1/DTD/svg11.dtd">
<svg version="1.1" xmlns="http://www.w3.org/2000/svg" xmlns:xlink="http://www.w3.org/1999/xlink" width="32" height="32" viewBox="0 0 32 32">
<g id="icomoon-ignore">
</g>
<path d="M20.295 30l9.705-9.705v9.705h-9.705zM2 20.295l9.705 9.705h-9.705v-9.705zM11.543 2.019l-9.543 9.543v-9.543h9.543zM30 11.75l-9.543-9.705h9.543v9.705zM12 12h8v8h-8v-8z" fill="#000000"></path>
</svg>
