<?xml version="1.0" encoding="utf-8"?>
<!-- Generated by IcoMoon.io -->
<!DOCTYPE svg PUBLIC "-//W3C//DTD SVG 1.1//EN" "http://www.w3.org/Graphics/SVG/1.1/DTD/svg11.dtd">
<svg version="1.1" xmlns="http://www.w3.org/2000/svg" xmlns:xlink="http://www.w3.org/1999/xlink" width="32" height="32" viewBox="0 0 32 32">
<g id="icomoon-ignore">
</g>
<path d="M22 30.005v-8.005h8l-8 8.005zM10.001 30.001l-8.001-8.001 8 0.001 0.001 8zM2.001 10.001l8.002-7.998-0.002 7.996-8 0.002zM22.001 2.001l8.002 7.999h-8.002v-7.999zM11.991 12.009l8.009-0.009 0.009 8-8.009 0.009-0.009-8z" fill="#000000"></path>
</svg>
